<?xml version="1.0" encoding="utf-8"?>
<!-- Generator: Adobe Illustrator 23.0.2, SVG Export Plug-In . SVG Version: 6.00 Build 0)  -->
<svg version="1.1" id="Layer_1" xmlns="http://www.w3.org/2000/svg" xmlns:xlink="http://www.w3.org/1999/xlink" x="0px" y="0px"
	 viewBox="0 0 180 180" style="enable-background:new 0 0 180 180;" xml:space="preserve">
<style type="text/css">
	.st0{fill:#FFFFFF;}
	.st1{fill:#030F2B;}
</style>
<path class="st0" d="M90,180L90,180c-49.71,0-90-40.29-90-90v0C0,40.29,40.29,0,90,0h0c49.71,0,90,40.29,90,90v0
	C180,139.71,139.71,180,90,180z"/>
<g>
	<g>
		<path class="st1" d="M56.98,61.36c-5.91,0-11.81-0.01-17.68-0.05c-0.27,0-0.5-0.22-0.5-0.5l0-1.36c0-2.66-0.01-5.31-0.03-7.97
			c0-0.14,0.05-0.26,0.15-0.36c0.1-0.09,0.24-0.15,0.36-0.14c21.2,0.44,42.76,0.18,63.62-0.08c12.4-0.15,25.22-0.31,37.83-0.32l0,0
			c0.13,0,0.26,0.05,0.35,0.15c0.09,0.09,0.15,0.22,0.15,0.35l-0.04,9.35c0,0.27-0.22,0.5-0.5,0.5c-11.34,0.04-22.67,0.12-33.99,0.2
			C90.39,61.24,73.66,61.36,56.98,61.36z M39.8,60.31c22.31,0.12,44.98-0.03,66.9-0.18c11.16-0.08,22.33-0.15,33.5-0.2l0.03-8.35
			c-12.45,0.01-25.09,0.17-37.32,0.32c-20.69,0.25-42.08,0.52-63.14,0.09c0.02,2.49,0.02,4.97,0.02,7.46L39.8,60.31z"/>
		<path class="st1" d="M40.2,129.42c-0.13,0-0.25-0.05-0.35-0.14c-0.1-0.09-0.15-0.22-0.15-0.35l-0.1-5.28
			c-0.38-20.59-0.77-41.88-0.81-62.84c0-0.13,0.05-0.26,0.15-0.36c0.09-0.09,0.19-0.16,0.36-0.15c22.87,0.13,46.11-0.03,68.58-0.18
			c10.93-0.07,21.87-0.15,32.81-0.19c0,0,0,0,0,0c0.13,0,0.26,0.05,0.35,0.15s0.15,0.22,0.15,0.36c-0.03,9.59-0.17,19.33-0.31,28.76
			c-0.18,12.44-0.37,25.3-0.31,37.96c0,0.13-0.05,0.26-0.15,0.35c-0.09,0.09-0.22,0.15-0.35,0.15h0
			c-34.1-0.08-69.03,0.91-99.86,1.77C40.21,129.42,40.21,129.42,40.2,129.42z M39.8,61.31c0.04,20.79,0.43,41.9,0.81,62.32
			l0.09,4.77c30.56-0.85,65.13-1.8,98.88-1.75c-0.05-12.5,0.13-25.19,0.31-37.47c0.13-9.26,0.27-18.82,0.31-28.25
			c-10.77,0.04-21.54,0.12-32.3,0.19C85.58,61.28,62.51,61.44,39.8,61.31z"/>
		<path class="st1" d="M135.6,58.19c-0.65,0-1.25-0.24-1.69-0.68c-0.46-0.45-0.71-1.07-0.71-1.74c0-0.66,0.25-1.28,0.7-1.73
			s1.06-0.7,1.73-0.7c0,0,0,0,0,0c0.67,0,1.28,0.25,1.73,0.71c0.45,0.45,0.69,1.06,0.69,1.71l-0.5,0l0.5,0
			c-0.01,1.37-1.05,2.41-2.42,2.43C135.62,58.19,135.61,58.19,135.6,58.19z M135.63,54.34c-0.39,0-0.76,0.14-1.02,0.41
			s-0.41,0.62-0.41,1.02c0,0.4,0.15,0.77,0.41,1.03c0.26,0.26,0.61,0.35,1,0.39c0.83-0.01,1.43-0.61,1.43-1.43
			c0-0.39-0.14-0.75-0.4-1.01C136.39,54.49,136.03,54.34,135.63,54.34C135.63,54.34,135.63,54.34,135.63,54.34z"/>
		<path class="st1" d="M50.42,58.89c-2.94,0-5.88-0.03-8.8-0.09c-0.27-0.01-0.49-0.23-0.49-0.5l-0.03-4.26
			c0-0.14,0.05-0.27,0.15-0.36c0.1-0.09,0.22-0.13,0.36-0.14c11.34,0.24,22.85-0.06,33.99-0.34c11.77-0.3,23.95-0.61,35.94-0.29
			c0.27,0.01,0.48,0.22,0.49,0.49c0.02,0.96,0.04,1.93,0.06,2.89l0.03,1.44c0,0.14-0.05,0.27-0.15,0.37s-0.23,0.15-0.37,0.14
			c-12.16-0.36-24.52-0.05-36.48,0.24C67.02,58.69,58.71,58.89,50.42,58.89z M42.13,57.82c11,0.22,22.17-0.06,32.97-0.33
			c11.8-0.29,24-0.6,36.01-0.26l-0.02-0.92c-0.02-0.8-0.03-1.61-0.05-2.41c-11.81-0.29-23.81,0.01-35.41,0.31
			c-10.98,0.28-22.33,0.57-33.53,0.35L42.13,57.82z"/>
		<g>
			<path class="st1" d="M41.65,63.15c0.02,21.13,0.51,42.23,0.86,63.36c31.7-0.92,63.51-1.75,95.22-1.7
				c-0.1-20.68,0.54-41.35,0.61-62.03C106.09,62.91,73.89,63.19,41.65,63.15z M105.5,109.76c-4.36,4.28-9.69,6.58-15.86,6.6
				c-6.17,0.02-11.51-2.23-15.91-6.51c-4.39-4.28-6.77-9.43-6.53-15.55c0.24-6.12,2.86-10.94,7.31-15.12s9.88-6.93,16.05-7.22
				c6.17-0.29,11.27,2.35,15.39,6.8c4.12,4.45,6.29,9.52,6.23,15.6C112.13,100.45,109.86,105.48,105.5,109.76z"/>
			<path class="st1" d="M42.51,127.01c-0.13,0-0.25-0.05-0.35-0.14c-0.1-0.09-0.15-0.22-0.15-0.35c-0.08-4.92-0.17-9.85-0.26-14.77
				c-0.29-15.92-0.58-32.38-0.6-48.6c0-0.13,0.05-0.26,0.15-0.35s0.22-0.15,0.35-0.15h0c21.42,0.03,43.18-0.09,64.23-0.21
				c10.82-0.06,21.63-0.12,32.46-0.16c0.13-0.02,0.26,0.05,0.36,0.15c0.09,0.09,0.15,0.22,0.15,0.36
				c-0.03,8.99-0.17,18.13-0.3,26.96c-0.18,11.49-0.36,23.37-0.3,35.06c0,0.13-0.05,0.26-0.15,0.35c-0.09,0.09-0.22,0.15-0.35,0.15
				c0,0,0,0,0,0c-32.04-0.05-64.61,0.81-95.2,1.7C42.52,127.01,42.52,127.01,42.51,127.01z M42.15,63.65
				c0.02,16.04,0.32,32.33,0.6,48.08c0.09,4.75,0.17,9.51,0.25,14.26c29.67-0.86,61.18-1.69,92.29-1.69c0.65,0,1.29,0,1.94,0
				c-0.05-11.53,0.13-23.24,0.3-34.57c0.13-8.67,0.27-17.63,0.3-26.45c-10.66,0.04-21.3,0.1-31.95,0.16
				C85,63.56,63.41,63.68,42.15,63.65z M89.55,116.87c-6.19,0-11.63-2.24-16.16-6.65c-4.67-4.55-6.92-9.91-6.68-15.93
				c0.24-5.91,2.68-10.97,7.47-15.46c4.83-4.53,10.49-7.08,16.37-7.35c5.94-0.3,11.25,2.06,15.78,6.96
				c4.34,4.7,6.42,9.91,6.37,15.94c-0.06,6.13-2.29,11.28-6.84,15.74c-4.53,4.45-9.98,6.72-16.21,6.75
				C89.61,116.87,89.58,116.87,89.55,116.87z M91.48,72.45c-0.29,0-0.59,0.01-0.89,0.02c-5.64,0.27-11.08,2.71-15.73,7.08
				c-4.59,4.3-6.93,9.14-7.15,14.77c-0.23,5.72,1.92,10.83,6.38,15.17c4.34,4.23,9.54,6.37,15.46,6.37c0.03,0,0.06,0,0.09,0
				c5.95-0.02,11.17-2.2,15.51-6.46c4.34-4.27,6.48-9.19,6.54-15.04c0.06-5.76-1.94-10.75-6.1-15.25
				C101.5,74.69,96.76,72.45,91.48,72.45z"/>
		</g>
	</g>
	<g>
		<path class="st1" d="M75.77,98.27c0.82,2.16,1.84,4.05,3.6,5.62c2.94,2.64,6.18,4.12,10.17,4.13c3.99,0.01,7.11-1.42,10.03-4
			c1.74-1.55,2.68-3.38,3.56-5.46C93.99,98.71,84.88,97.99,75.77,98.27z"/>
		<path class="st1" d="M104.51,80.14c-3.75-4.06-8.4-6.46-14.02-6.2c-5.62,0.26-10.57,2.77-14.62,6.58
			c-4.05,3.8-6.44,8.19-6.66,13.78c-0.22,5.58,1.95,10.27,5.95,14.17s8.87,5.95,14.49,5.93c5.62-0.02,10.48-2.12,14.45-6.02
			c3.97-3.9,6.04-8.49,6.09-14.02C110.24,88.82,108.26,84.2,104.51,80.14z M78.79,83.29c3.4-2.92,7.37-5.14,11.88-5.22
			c4.51-0.08,7.84,1.84,10.92,4.99c2.76,2.83,3.96,6.25,4.52,10.11C95.13,93.4,84.24,92.96,73.27,93
			C74.13,89.13,75.75,85.9,78.79,83.29z M101.19,105.57c-3.33,3.07-7,4.74-11.59,4.74s-8.38-1.67-11.75-4.78
			c-2.81-2.59-4.11-5.76-4.7-9.47c10.96-0.24,21.88,0.4,32.85,0.2C105.23,99.88,103.97,103,101.19,105.57z"/>
		<path class="st1" d="M99.94,84.73c-2.67-2.6-5.42-4.25-9.28-4.23c-3.86,0.02-7.31,1.94-10.27,4.34c-1.98,1.61-3.24,3.65-4.27,5.94
			c9.13,0.08,18.17,0.38,27.31,0.17C102.65,88.63,101.73,86.47,99.94,84.73z"/>
	</g>
</g>
</svg>
